{
  "name": "Metta Welfare",
  "app_id": "0e53face",
  "v2": true,
  "typescript": true,
  "proxies": [
    {
      "path": "/employee",
      "proxyUrl": "http://192.168.1.3:9000/employee"
    }
  ]
}
